analysis_reliability_check_with_R
…
SSSV_subscale_df <- items_per_LLM %>%
  filter(experiment == "FTND scale")

SSSV_subscale_wide <- SSSV_subscale_df %>%
  pivot_wider(
    id_cols = c(experiment, model),
    names_from = item,
    values_from = score
  )

SSSV_subscale_wide

# A tibble: 46 × 9
   experiment model                    `1`   `2`    `3`   `4`    `5`   `6`   `7`
   <chr>      <chr>                  <dbl> <dbl>  <dbl> <dbl>  <dbl> <dbl> <dbl>
 1 FTND scale Apertus-70B-Instruct-… 0.455 1.04  0.0754 0.253 0.0486 0.147 0.258
 2 FTND scale Apertus-8B-Instruct-2… 0.675 0.511 0.0620 0.219 0.0524 0.127 0.185
 3 FTND scale Falcon-3-10B-Instruct  0.852 0.847 0.0720 0.229 0.528  0.140 0.190
 4 FTND scale Falcon-3-1B-Instruct   1.15  0.505 0.101  0.452 0.0724 0.149 0.242
 5 FTND scale Falcon-3-7B-Instruct   0.872 0.877 0.0919 0.255 0.205  0.151 0.239
 6 FTND scale LFM2-1.2B              1.04  0.644 0.0697 0.271 0.538  0.131 0.189
 7 FTND scale LFM2-2.6B              1.00  0.699 0.162  0.288 0.574  0.141 0.211
 8 FTND scale LFM2-8B-A1B            0.530 0.546 0.104  0.296 0.280  0.184 0.302
 9 FTND scale Llama-3.1-70B-Instruct 0.707 0.632 0.0805 0.277 0.271  0.163 0.245
10 FTND scale Llama-3.1-8B-Instruct  1.19  0.437 0.0730 0.256 0.305  0.143 0.213
# ℹ 36 more rows
…
